<svg width="12" height="8" viewBox="0 0 12 8" fill="none" xmlns="http://www.w3.org/2000/svg">
<path d="M7.33567 0.330781C7.10817 0.558281 7.10817 0.925781 7.33567 1.15328L9.599 3.41661H0.749837C0.429004 3.41661 0.166504 3.67911 0.166504 3.99995C0.166504 4.32078 0.429004 4.58328 0.749837 4.58328H9.60484L7.3415 6.84661C7.114 7.07411 7.114 7.44161 7.3415 7.66911C7.569 7.89661 7.9365 7.89661 8.164 7.66911L11.4248 4.40828C11.6523 4.18078 11.6523 3.81328 11.4248 3.58578L8.15817 0.330781C7.9365 0.103281 7.56317 0.103281 7.33567 0.330781Z" fill="#665C5D"/>
</svg>
