<svg width="16" height="16" viewBox="0 0 16 16" fill="none" xmlns="http://www.w3.org/2000/svg">
<path opacity="0.3" d="M12.6666 3.33325H3.33331V4.66659H12.6666V3.33325Z" fill="white"/>
<path d="M3.33333 14.0001H12.6667C13.4 14.0001 14 13.4001 14 12.6667V3.33341C14 2.60008 13.4 2.00008 12.6667 2.00008H12V0.666748H10.6667V2.00008H5.33333V0.666748H4V2.00008H3.33333C2.59333 2.00008 2.00667 2.60008 2.00667 3.33341L2 12.6667C2 13.4001 2.59333 14.0001 3.33333 14.0001ZM3.33333 4.66675V3.33341H12.6667V4.66675H3.33333ZM3.33333 6.00008H12.6667V12.6667H3.33333V6.00008ZM8 8.00008H11.3333V11.3334H8V8.00008Z" fill="white"/>
</svg>
