<svg width="18" height="18" viewBox="0 0 18 18" fill="none" xmlns="http://www.w3.org/2000/svg">
<path d="M17.1666 2.47825L15.5216 0.833252L8.99998 7.35492L2.47831 0.833252L0.833313 2.47825L7.35498 8.99992L0.833313 15.5216L2.47831 17.1666L8.99998 10.6449L15.5216 17.1666L17.1666 15.5216L10.645 8.99992L17.1666 2.47825Z" fill="#323232"/>
</svg>
