<svg width="123" height="16" viewBox="0 0 123 16" fill="none" xmlns="http://www.w3.org/2000/svg">
<path d="M2.62483 15.9024C1.34464 15.7148 0.408705 15.0461 0.134208 14.123C-0.0492103 13.5062 -0.0432384 11.3152 0.143617 10.6714C0.494814 9.46134 0.768227 8.88737 3.82917 8.76337C4.67437 8.72913 7.50809 8.76955 8.46455 8.79151C9.63417 8.79151 9.89695 9.25133 10.4317 9.49458C10.4259 9.42175 10.5172 8.2843 10.4157 7.90864C10.3545 7.6821 9.99253 7.27689 9.33043 7.17646C7.89063 7.10619 10.1989 7.13724 4.91733 7.18632C4.76973 7.32498 4.43918 7.6942 4.26167 7.89477C4.14412 8.02759 4.28174 8.0075 2.37785 8.0075H0.339766L0.412927 7.35754C0.568415 5.97619 1.17455 5.18875 2.36126 4.82641C2.75717 4.70552 3.10397 4.54107 4.45569 4.52249C11.0344 4.52366 4.46952 4.53804 11.0387 4.51765C11.8916 4.54381 12.1133 4.73358 12.4387 4.86516C13.6833 5.36839 14.4173 6.36342 14.6037 7.79979C14.7424 10.6448 14.7087 12.86 14.7113 15.807C13.394 15.807 12.0768 15.807 10.7595 15.807V15.235C10.7595 14.9205 10.7316 14.6631 10.6975 14.6631C10.6634 14.6631 10.4282 14.8455 10.175 15.0684C9.57859 15.5934 9.12221 15.8039 8.33263 15.9181C7.54101 16.0326 3.43638 16.0213 2.62483 15.9024H2.62483ZM9.90462 13.1601C10.4271 12.9418 10.5515 12.7508 10.5515 12.1672C10.4227 10.6338 5.80439 10.9353 4.28594 11.5438C3.90731 11.9605 3.8841 12.6461 4.23739 12.978C4.61987 13.3373 5.17597 13.4078 7.37975 13.376C9.09455 13.3513 9.53773 13.3134 9.90462 13.1601ZM20.1593 15.9105C17.7802 15.5821 16.6251 14.5556 16.152 12.3496C16.0859 12.0417 16.0595 11.0173 16.0861 9.79175C16.125 7.99306 16.1579 7.67691 16.3604 7.15976C16.8358 5.94535 17.4806 5.29261 18.6284 4.86382C19.2033 4.64901 19.4352 4.63522 23.0711 4.59947C27.277 4.55812 27.9186 4.61201 28.9333 5.09188C30.2289 5.70461 30.7412 6.53567 30.8105 8.13749L30.8545 9.15143C29.5318 9.15143 28.2092 9.15143 26.8865 9.15143L26.7797 8.75468C26.5526 7.91117 26.0589 7.69632 24.1747 7.6211C21.9645 7.53286 20.9042 7.76707 20.3898 8.4571C20.1932 8.72078 20.1709 8.89036 20.1709 10.121C20.1709 11.2254 20.2059 11.5553 20.3514 11.8211C20.79 12.6228 21.5859 12.8322 23.9685 12.7728C25.4293 12.7364 25.6313 12.7083 26.1004 12.4759C26.554 12.2512 26.638 12.1578 26.7745 11.7258L26.9305 11.2324C28.2385 11.2321 29.5465 11.2317 30.8545 11.2313L30.8095 12.2453C30.7394 13.8261 30.1914 14.762 28.9719 15.3842C27.982 15.8892 27.5441 15.9416 24.0707 15.9708C22.269 15.9859 20.5089 15.9588 20.1593 15.9106V15.9105ZM37.5094 15.9024C35.9489 15.6628 35.0271 15.0838 34.47 13.9933L34.1061 13.2808C34.0829 11.419 34.0597 9.55727 34.0365 7.69552C33.349 7.69552 32.6616 7.69552 31.9742 7.69552C31.9742 6.69025 31.9742 5.68498 31.9742 4.67971C32.6675 4.67971 33.3608 4.67971 34.0541 4.67971V3.37979V2.07987C35.4407 2.07987 36.8272 2.07987 38.2138 2.07987V3.37979V4.67971C40.3977 4.67971 42.5815 4.67971 44.7654 4.67971C44.7654 5.68498 44.7654 6.69025 44.7654 7.69552C42.5815 7.69552 40.3977 7.69552 38.2138 7.69552C38.3457 12.5316 38.1885 7.69039 38.3262 12.4949C38.4989 12.8176 39.066 12.9992 39.9004 12.999C41.2041 12.9987 41.6255 12.6146 41.6397 11.4133L41.6456 10.9193H43.4135H45.1814L45.1807 11.9852C45.18 13.2376 45.0855 13.6398 44.6326 14.3175C44.2201 14.9347 43.5084 15.423 42.5973 15.7138C42.0218 15.8974 41.591 15.9402 40.0336 15.9686C39.0041 15.9873 37.8682 15.9575 37.5093 15.9024H37.5094ZM56.2567 15.9499C55.148 15.7316 54.8511 15.6512 54.5045 15.4753C53.9226 15.1802 53.2673 14.5384 52.9987 14.0005C52.6026 13.2074 52.4646 12.2654 52.4635 10.3474C52.462 7.73541 52.6925 6.70822 53.4817 5.80933C53.8822 5.35319 54.8283 4.84406 55.5598 4.69101C56.4277 4.50944 64.3193 4.53748 65.0224 4.72464C66.24 5.04878 67.0411 5.6784 67.4799 6.65635C67.8776 7.54234 67.9561 8.14342 67.9541 10.2835C67.9523 12.2826 67.8239 13.2854 67.4865 13.9381C67.2059 14.4806 66.4931 15.183 65.9375 15.4646C65.016 15.9315 64.1839 16.0085 60.1564 15.9993C58.126 15.9947 56.3711 15.9724 56.2567 15.9499ZM62.8603 12.6664C63.0605 12.5782 63.3412 12.3793 63.4842 12.2244C63.7334 11.9546 63.7455 11.8794 63.775 10.4172C63.8099 8.6932 63.7095 8.3306 63.1003 7.97898C62.647 7.71736 61.0124 7.55676 59.5325 7.62842C57.153 7.74364 56.6226 8.23146 56.6212 10.3058C56.6202 11.8796 57.0129 12.476 58.2552 12.7878C58.9014 12.95 62.4278 12.8571 62.8603 12.6664ZM88.4194 15.9079C87.6588 15.7894 86.8769 15.4529 86.5366 15.0975C86.3899 14.9444 86.1643 14.5851 86.0352 14.2991C85.8297 13.8438 85.8 13.6044 85.7966 12.3752C85.7929 11.04 85.8072 10.9418 86.088 10.368C86.7457 9.02437 88.1526 8.66534 92.3803 8.76238C94.75 8.81677 95.4083 8.92658 95.9583 9.35919C96.1039 9.47371 96.2507 9.5674 96.2846 9.5674C96.4101 9.5674 96.341 8.19655 96.1984 7.85507C95.9198 7.18842 95.6467 7.12355 93.1179 7.12355C91.1533 7.12355 90.8431 7.14611 90.5977 7.30686C90.4438 7.40767 90.2886 7.60656 90.2529 7.74883L90.188 8.0075C88.8469 8.0075 87.5057 8.0075 86.1646 8.0075L86.221 7.46153C86.3565 6.15048 86.8131 5.38948 87.6908 5.0119C88.6188 4.61268 89.3352 4.56224 93.5903 4.5965C97.5791 4.62862 97.6562 4.63323 98.2602 4.87594C99.1011 5.21382 99.8831 5.9926 100.204 6.81157C100.561 15.8058 100.192 6.73111 100.521 15.807C99.1984 15.807 97.8763 15.807 96.5542 15.807V15.235C96.5542 14.9205 96.5259 14.6631 96.4914 14.6631C96.4569 14.6631 96.1993 14.8694 95.9189 15.1215C95.0687 15.8859 94.8155 15.9371 91.7185 15.971C90.2313 15.9872 88.7468 15.9588 88.4194 15.9079ZM95.0982 13.3068C95.8875 13.1822 96.2557 12.95 96.3864 12.4946C96.5402 11.9583 96.3566 11.5237 95.8764 11.2874C95.5219 11.113 95.1851 11.0777 93.5383 11.0424C90.5901 10.9793 89.9369 11.1796 89.825 12.181C89.7584 12.7778 90.041 13.1568 90.6558 13.2945C91.2572 13.4294 94.2697 13.4377 95.0982 13.3068ZM111.803 15.9047C109.597 15.6486 108.391 14.9541 107.874 13.6415C107.605 11.6737 107.265 9.9398 107.681 7.65561C107.985 6.11241 108.791 5.29937 110.496 4.81876C112.771 4.51783 113.785 4.62879 116.365 4.62771L117.052 4.95334C117.8 5.30758 118.22 5.75443 118.425 6.41346C118.527 6.7428 118.554 6.22321 118.576 3.40579L118.604 0H120.682H122.761C122.761 5.269 122.761 10.538 122.761 15.807H120.785H118.809L118.804 14.7931L118.8 13.7791L118.585 14.1951C118.088 15.1576 117.37 15.6429 116.111 15.8674C115.263 16.0189 112.958 16.0388 111.803 15.9047H111.803ZM117.901 12.6481C118.615 12.2935 118.752 11.9747 118.792 10.5677C118.834 9.07218 118.779 8.73522 118.419 8.3084C117.96 7.76209 117.596 7.67145 115.637 7.61595C113.693 7.56086 112.571 7.68061 112.156 7.9875C111.659 8.35512 111.583 8.66351 111.584 10.2954C111.586 11.9837 111.696 12.3397 112.305 12.6233C112.835 12.8701 112.962 12.8803 115.273 12.8612C117.225 12.8451 117.559 12.818 117.901 12.6481ZM69.5158 4.67971H71.5917H73.6675L73.6975 5.57288L73.7276 6.46606L74.0646 5.98717C74.5023 5.36526 75.1875 4.93892 76.0732 4.73748C77.013 4.52373 79.8914 4.51921 80.886 4.72992C82.7837 5.13201 83.8211 6.08801 84.2266 7.80852C84.4795 10.8333 84.3855 12.3767 84.3869 15.807C83.003 15.807 81.619 15.807 80.235 15.807C80.2151 13.4543 80.1951 11.1016 80.1752 8.74885L79.8674 8.42773C79.4108 7.95133 78.7571 7.79941 77.1665 7.80009C76.419 7.8004 75.6203 7.85108 75.3915 7.9127C74.7356 8.08935 74.2301 8.49542 73.939 9.07961L73.6756 9.60824C73.6756 11.6745 73.6756 13.7408 73.6756 15.807C72.289 15.807 70.9024 15.807 69.5158 15.807C69.5158 12.0979 69.5158 8.38881 69.5158 4.67971ZM102.066 4.67971C103.452 4.67971 104.839 4.67971 106.226 4.67971C106.226 8.38881 106.226 12.0979 106.226 15.807C104.839 15.807 103.452 15.807 102.066 15.807C102.066 12.0979 102.066 8.38881 102.066 4.67971ZM46.8453 12.5832C48.1972 12.5832 49.5491 12.5832 50.901 12.5832C50.901 13.6231 50.901 14.6631 50.901 15.703C49.5491 15.703 48.1972 15.703 46.8453 15.703C46.8453 14.6631 46.8453 13.6231 46.8453 12.5832ZM46.8453 4.67971C48.1972 4.67971 49.5491 4.67971 50.901 4.67971C50.901 6.82891 50.901 8.9781 50.901 11.1273C49.5491 11.1273 48.1972 11.1273 46.8453 11.1273C46.8453 8.9781 46.8453 6.82891 46.8453 4.67971ZM102.066 0C103.452 0 104.839 0 106.226 0C106.226 1.0746 106.226 2.1492 106.226 3.2238C104.839 3.2238 103.452 3.2238 102.066 3.2238C102.066 2.1492 102.066 1.0746 102.066 0Z" fill="#F63042"/>
</svg>
