<svg width="19" height="19" viewBox="0 0 19 19" fill="none" xmlns="http://www.w3.org/2000/svg">
<path d="M9.49998 13.672L14.3925 16.6249L13.0941 11.0595L17.4166 7.31492L11.7246 6.832L9.49998 1.58325L7.2754 6.832L1.58331 7.31492L5.90581 11.0595L4.60748 16.6249L9.49998 13.672Z" fill="#E2C251"/>
</svg>
